[
    {
        "first_name": "Sarah",
        "last_name": "Tak",
        "email": "stak@test.com",
        "mobile_number": "555-555-5555",
        "txt_ok_ind": false,
        "email_ok_ind": true,
        "dim_pgm_of_study_cur": "test",
        "birth_date": "1999-02-15",
        "overall_credits": 45.0,
        "overall_gpa": 2.5,
        "canvas_user_id": 2
    },
    {
        "first_name": "Devon",
        "last_name": "Jeffries",
        "email": "djeffries2@test.com",
        "mobile_number": "555-555-5554",
        "txt_ok_ind": true,
        "email_ok_ind": false,
        "dim_pgm_of_study_cur": "test2",
        "birth_date": "2000-08-02",
        "overall_credits": 45.0,
        "overall_gpa": 2.25,
        "canvas_user_id": 3
    }
]
